9 Der Pipe-Operator %>% | Computational Methods in der politischen Kommunikationsforschung
…
modified_df <- df_fb_eu %>% # Wir definieren die Zuweisung und übergeben df_fb_eu an
  filter(type == "video") %>% # die filter()-Funktion; der resultierende Datensatz wird an
  select(id, party, comments_count) %>% # select() übergeben; das Resultat wiederum wird
  group_by(party) %>%                   # gruppiert etc.
  mutate(comment_percentage = comments_count / sum(comments_count)) %>% 
  ungroup()

modified_df

## # A tibble: 272 x 4
##       id party         comments_count comment_percentage
##    <dbl> <chr>                  <dbl>              <dbl>
##  1     1 oedp.de                    0           NA      
##  2     3 B90DieGruenen             70           NA      
##  3     6 CDU                      239           NA      
##  4     8 Piratenpartei              0            0      
##  5    11 DiePARTEI                 61            0.0371 
##  6    14 FDP                      358            0.117  
##  7    16 DiePARTEI                 15            0.00912
##  8    18 CDU                      140           NA      
##  9    26 SPD                      174            0.0599 
## 10    31 CDU                      274           NA      
## # ... with 262 more rows

Auch für schnelle deskriptive Auswertungen können wir Pipes gut nutzen – z. B. um uns schnell die Mittelwerte bestimmter Variablen gruppiert nach anderen Variablen anzuzeigen:

df_fb_eu %>% 
  group_by(party, type) %>% 
  summarize(mean_comments = mean(comments_count, na.rm = TRUE),
            mean_shares = mean(shares_count, na.rm = TRUE), 
            mean_reactions = mean(reactions_count, na.rm = TRUE))

## # A tibble: 46 x 5
## # Groups:   party [14]
##    party             type   mean_comments mean_shares mean_reactions
##    <chr>             <chr>          <dbl>       <dbl>          <dbl>
##  1 alternativefuerde link           826.       1341.           2953 
##  2 alternativefuerde photo          860.       2466.           5269.
##  3 alternativefuerde video          875.        847.           2340.
##  4 B90DieGruenen     photo          134.        183.            902.
##  5 B90DieGruenen     video           77.9       184.            425.
##  6 CDU               photo          394.        114.            810.
##  7 CDU               video          293.         53.0           400.
##  8 CSU               link            25          11             132.
##  9 CSU               photo          143.         63.8           566.
## 10 CSU               status         416.        112.           1106 
## # ... with 36 more rows
…
