8 Daten laden, modifizieren und speichern | Computational Methods in der politischen Kommunikationsforschung
…
Die Funktion teilt uns direkt mit, welche Objekttypen für welche Variable verwendet wurden, sodass wir hier auch direkt sehen können, ob z. B. eine numerische Variable als Text eingelesen wurde. Zudem ist der eingelesene Datensatz direkt ein Tibble, wir müssen also nicht mehr durch as_tibble() konvertieren.14

Schauen wir uns unseren gerade geladenen Datensatz einmal an – da unser Datensatz als Tibble vorliegt, erhalten wir die wichtigsten Informationen zu Struktur und einen Einblick in die Daten direkt in Konsole, wenn wir das Datensatz-Objekt aufrufen:

df_fb_eu

## # A tibble: 902 x 16
##       id URL   party timestamp           type  message link  comments_count
##    <dbl> <chr> <chr> <dttm>              <chr> <chr>   <chr>          <dbl>
##  1     1 http~ oedp~ 2019-04-28 09:00:00 video "Guido~ http~              0
##  2     2 http~ tier~ 2019-04-28 13:57:00 photo "Aus u~ http~             17
##  3     3 http~ B90D~ 2019-04-28 06:00:01 video "Beim ~ http~             70
##  4     4 http~ FDP   2019-04-28 11:49:59 photo "Unser~ http~             16
##  5     5 http~ tier~ 2019-04-28 08:24:15 link  "Eine ~ http~              6
##  6     6 http~ CDU   2019-04-28 09:12:19 video "Freih~ http~            239
##  7     7 http~ SPD   2019-04-28 13:06:09 photo "Katar~ http~            180
##  8     8 http~ Pira~ 2019-04-28 17:36:30 video "Unser~ http~              0
##  9     9 http~ DieP~ 2019-04-28 07:44:28 link  "Der a~ http~             35
## 10    10 http~ CSU   2019-04-28 08:21:00 photo "#Klar~ http~            174
## # ... with 892 more rows, and 8 more variables: shares_count <dbl>,
## #   reactions_count <dbl>, like_count <dbl>, love_count <dbl>, wow_count <dbl>,
## #   haha_count <dbl>, sad_count <dbl>, angry_count <dbl>
…
Illustration von @allison_horst: https://twitter.com/allison_horst

8.2.1 Variablen spaltenweise auswählen mit select()

Mit select() können wir bestimmte Spalten eines Datensatzes auswählen. Hierzu übergeben wir nach dem Datensatz einfach alle Variablen, die wir benötigen, direkt als Objektnamen – in unserem Beispiel id, URL, party usw. – ohne Anführungszeichen durch Kommas getrennt:16

# Wähle nur die Variablen id, party und timestamp aus
select(df_fb_eu, id, party, timestamp) 

## # A tibble: 902 x 3
##       id party            timestamp          
##    <dbl> <chr>            <dttm>             
##  1     1 oedp.de          2019-04-28 09:00:00
##  2     2 tierschutzpartei 2019-04-28 13:57:00
##  3     3 B90DieGruenen    2019-04-28 06:00:01
##  4     4 FDP              2019-04-28 11:49:59
##  5     5 tierschutzpartei 2019-04-28 08:24:15
##  6     6 CDU              2019-04-28 09:12:19
##  7     7 SPD              2019-04-28 13:06:09
##  8     8 Piratenpartei    2019-04-28 17:36:30
##  9     9 DiePARTEI        2019-04-28 07:44:28
## 10    10 CSU              2019-04-28 08:21:00
## # ... with 892 more rows

Durch ein vorangstelltes - werden Variablen ausgeschlossen:

# Entferne die id und die URL-Variable
select(df_fb_eu, -id, -URL)

## # A tibble: 902 x 14
##    party timestamp           type  message link  comments_count shares_count
##    <chr> <dttm>              <chr> <chr>   <chr>          <dbl>        <dbl>
##  1 oedp~ 2019-04-28 09:00:00 video "Guido~ http~              0            4
##  2 tier~ 2019-04-28 13:57:00 photo "Aus u~ http~             17          130
##  3 B90D~ 2019-04-28 06:00:01 video "Beim ~ http~             70           28
##  4 FDP   2019-04-28 11:49:59 photo "Unser~ http~             16            9
##  5 tier~ 2019-04-28 08:24:15 link  "Eine ~ http~              6           46
##  6 CDU   2019-04-28 09:12:19 video "Freih~ http~            239          136
##  7 SPD   2019-04-28 13:06:09 photo "Katar~ http~            180           54
##  8 Pira~ 2019-04-28 17:36:30 video "Unser~ http~              0           NA
##  9 DieP~ 2019-04-28 07:44:28 link  "Der a~ http~             35           76
## 10 CSU   2019-04-28 08:21:00 photo "#Klar~ http~            174           61
## # ... with 892 more rows, and 7 more variables: reactions_count <dbl>,
## #   like_count <dbl>, love_count <dbl>, wow_count <dbl>, haha_count <dbl>,
## #   sad_count <dbl>, angry_count <dbl>

Durch ein vorangestelltes neuer_objektname = können wir Variablen beim Auswählen auch direkt umbenennen:

# Benenne party und message beim Auswählen um in partei respektive inhalt
select(df_fb_eu, partei = party, inhalt = message)

## # A tibble: 902 x 2
##    partei          inhalt                                                              
##    <chr>           <chr>                                                               
##  1 oedp.de         "Guido #Klamt aus #Ludwigsburg, Listenplatz 5 auf der Kandidatenlis~
##  2 tierschutzpart~ "Aus unserem Europawahlprogramm, Kapitel 7: Gesundheits- und Sozial~
##  3 B90DieGruenen   "Beim Wahlkampf-Camp in Berlin waren gestern hunderte Freiwillige, ~
##  4 FDP             "Unser neuer Bundesvorstand \U0001f389\U0001f38a\U0001f388 #Chancen~
##  5 tierschutzpart~ "Eine neue Studie der Universität Oxford zeigt, dass eine vegane Er~
##  6 CDU             "Freiheit ist nicht selbstverständlich. #UnserEuropa steht für frei~
##  7 SPD             "Katarina Barley sagt: Eine weitere Koalition mit der #EVP will ich~
##  8 Piratenpartei   "Unser Spitzenkandidat Patrick Breyer mit einem Update zum EU19 Wor~
##  9 DiePARTEI       "Der absolut härteste „Martin-Sonneborn-Moment“ kommt für Watson.de~
## 10 CSU             "#Klartext von Bayerns Ministerpräsident und CSU-Chef Markus Söder ~
## # ... with 892 more rows

Um Variablen basierend auf Namensbestandteilen auszuwählen, sind einige Hilfsfunktionen - z. B. starts_with(), ends_with() und contains() - verfügbar. Da in unserem Beispiel alle Facebook-Metriken auf _count enden, können wir diese gesammelt mit ends_with("count") auswählen:

# Wähle party und alle Facebook-Metriken aus
select(df_fb_eu, party, ends_with("count"))

## # A tibble: 902 x 10
##    party comments_count shares_count reactions_count like_count love_count wow_count
##    <chr>          <dbl>        <dbl>           <dbl>      <dbl>      <dbl>     <dbl>
##  1 oedp~              0            4               9          9          0         0
##  2 tier~             17          130             395        354         23         3
##  3 B90D~             70           28             215        174         14         3
##  4 FDP               16            9             262        254          7         0
##  5 tier~              6           46             145        129         14         2
##  6 CDU              239          136             398        292          8         0
##  7 SPD              180           54             699        576         34         4
##  8 Pira~              0           NA               7          6          0         1
##  9 DieP~             35           76             612        509         49         0
## 10 CSU              174           61             458        334          3         5
## # ... with 892 more rows, and 3 more variables: haha_count <dbl>, sad_count <dbl>,
## #   angry_count <dbl>

Schließlich kann die Hilfsfunktion everything() (ohne Argumente) genutzt werden, um sämtliche nicht zuvor angegebenen Variablen auswählen – das ist hilfreich, wenn nur bestimmte Variablen z. B. umbenannt oder an den Anfang des Datensatzes gestellt werden sollen, aber man nicht alle anderen Variablen von Hand tippen möchte:

# Stelle party umbenannt in Partei an den Anfang und hänge alle verbleibenden Variablen an
select(df_fb_eu, Partei = party, everything())

## # A tibble: 902 x 16
##    Partei    id URL   timestamp           type  message link  comments_count
##    <chr>  <dbl> <chr> <dttm>              <chr> <chr>   <chr>          <dbl>
##  1 oedp.~     1 http~ 2019-04-28 09:00:00 video "Guido~ http~              0
##  2 tiers~     2 http~ 2019-04-28 13:57:00 photo "Aus u~ http~             17
##  3 B90Di~     3 http~ 2019-04-28 06:00:01 video "Beim ~ http~             70
##  4 FDP        4 http~ 2019-04-28 11:49:59 photo "Unser~ http~             16
##  5 tiers~     5 http~ 2019-04-28 08:24:15 link  "Eine ~ http~              6
##  6 CDU        6 http~ 2019-04-28 09:12:19 video "Freih~ http~            239
##  7 SPD        7 http~ 2019-04-28 13:06:09 photo "Katar~ http~            180
##  8 Pirat~     8 http~ 2019-04-28 17:36:30 video "Unser~ http~              0
##  9 DiePA~     9 http~ 2019-04-28 07:44:28 link  "Der a~ http~             35
## 10 CSU       10 http~ 2019-04-28 08:21:00 photo "#Klar~ http~            174
## # ... with 892 more rows, and 8 more variables: shares_count <dbl>,
## #   reactions_count <dbl>, like_count <dbl>, love_count <dbl>, wow_count <dbl>,
## #   haha_count <dbl>, sad_count <dbl>, angry_count <dbl>

8.2.2 Variablen zeilenweise filtern mit filter()

Um nur bestimmte Zeilen auswählen, können wir mittels filter() eine oder mehrere Bedingungen übergeben, die analog zu den if-Bedingungen in Kapitel 4.1 angegeben werden. Zuerst wird erneut der Datensatz übergeben:

# Wähle alle Facebookposts mit mindestens einem Kommentar
filter(df_fb_eu, comments_count > 0)
# Achten Sie in der Ausgabe auf die veränderte Zeilenanzahl

## # A tibble: 832 x 16
##       id URL   party timestamp           type  message link  comments_count
##    <dbl> <chr> <chr> <dttm>              <chr> <chr>   <chr>          <dbl>
##  1     2 http~ tier~ 2019-04-28 13:57:00 photo "Aus u~ http~             17
##  2     3 http~ B90D~ 2019-04-28 06:00:01 video "Beim ~ http~             70
##  3     4 http~ FDP   2019-04-28 11:49:59 photo "Unser~ http~             16
##  4     5 http~ tier~ 2019-04-28 08:24:15 link  "Eine ~ http~              6
##  5     6 http~ CDU   2019-04-28 09:12:19 video "Freih~ http~            239
##  6     7 http~ SPD   2019-04-28 13:06:09 photo "Katar~ http~            180
##  7     9 http~ DieP~ 2019-04-28 07:44:28 link  "Der a~ http~             35
##  8    10 http~ CSU   2019-04-28 08:21:00 photo "#Klar~ http~            174
##  9    11 http~ DieP~ 2019-04-28 08:11:28 video "Anste~ http~             61
## 10    12 http~ alte~ 2019-04-28 14:55:00 link  "++ Ha~ http~           1163
## # ... with 822 more rows, and 8 more variables: shares_count <dbl>,
## #   reactions_count <dbl>, like_count <dbl>, love_count <dbl>, wow_count <dbl>,
## #   haha_count <dbl>, sad_count <dbl>, angry_count <dbl>

Natürlich können auch Boolesche Operatoren (! für NICHT, & für UND, | für ODER) verwendet werden. Mehrere Bedingungen können auch per , getrennt werden (UND-Verknüpfung):

# Wähle nur Video-Posts der großen Koalition, die keine fehlenden Werte bei den Shares haben
filter(df_fb_eu, party %in% c("CDU", "CSU", "SPD"), type == "video", !is.na(shares_count))

## # A tibble: 62 x 16
##       id URL   party timestamp           type  message link  comments_count
##    <dbl> <chr> <chr> <dttm>              <chr> <chr>   <chr>          <dbl>
##  1     6 http~ CDU   2019-04-28 09:12:19 video "Freih~ http~            239
##  2    18 http~ CDU   2019-04-29 11:38:01 video "Live:~ http~            140
##  3    26 http~ SPD   2019-04-29 09:02:51 video "Press~ http~            174
##  4    31 http~ CDU   2019-04-29 09:58:45 video "Da st~ http~            274
##  5    93 http~ CDU   2019-05-01 09:00:47 video "Heute~ http~            305
##  6   122 http~ CDU   2019-05-02 18:00:01 video "Heute~ http~            122
##  7   141 http~ CDU   2019-05-03 14:06:29 video "Anneg~ http~            158
##  8   152 http~ SPD   2019-05-03 14:00:10 video "Jetzt~ http~            515
##  9   178 http~ CSU   2019-05-05 08:30:00 video "Die E~ http~            153
## 10   197 http~ CSU   2019-05-06 11:04:28 video "Press~ http~             98
## # ... with 52 more rows, and 8 more variables: shares_count <dbl>,
## #   reactions_count <dbl>, like_count <dbl>, love_count <dbl>, wow_count <dbl>,
## #   haha_count <dbl>, sad_count <dbl>, angry_count <dbl>

8.2.3 Daten sortieren mit arrange()

Um den Datensatz für die Ansicht umzusortieren, wird die Funktion arrange() genutzt, die aufsteigend nach den angegebenen Variablen sortiert:

# Sortiere aufsteigend nach Datum
arrange(df_fb_eu, timestamp)

## # A tibble: 902 x 16
##       id URL   party timestamp           type  message link  comments_count
##    <dbl> <chr> <chr> <dttm>              <chr> <chr>   <chr>          <dbl>
##  1     3 http~ B90D~ 2019-04-28 06:00:01 video "Beim ~ http~             70
##  2    13 http~ FDP   2019-04-28 06:18:18 photo "Wir w~ http~             47
##  3     9 http~ DieP~ 2019-04-28 07:44:28 link  "Der a~ http~             35
##  4    11 http~ DieP~ 2019-04-28 08:11:28 video "Anste~ http~             61
##  5    10 http~ CSU   2019-04-28 08:21:00 photo "#Klar~ http~            174
##  6     5 http~ tier~ 2019-04-28 08:24:15 link  "Eine ~ http~              6
##  7     1 http~ oedp~ 2019-04-28 09:00:00 video "Guido~ http~              0
##  8     6 http~ CDU   2019-04-28 09:12:19 video "Freih~ http~            239
##  9    15 http~ FDP   2019-04-28 10:40:57 photo "Weil ~ http~             14
## 10     4 http~ FDP   2019-04-28 11:49:59 photo "Unser~ http~             16
## # ... with 892 more rows, and 8 more variables: shares_count <dbl>,
## #   reactions_count <dbl>, like_count <dbl>, love_count <dbl>, wow_count <dbl>,
## #   haha_count <dbl>, sad_count <dbl>, angry_count <dbl>

Werden mehrere Variablen angegeben, wird zunächst nach der ersten Variablen, dann innerhalb der ersten Variablen nach der zweiten Variablen usw. sortiert. Soll eine Variable stattdessen absteigend sortiert werden, wird der Variablenname in die Hilfsfunktion desc() gepackt:

# Sortiere alphabetisch aufsteigend nach Partei
# und innerhalb von Parteien absteigend nach Kommentaranzahl
arrange(df_fb_eu, party, desc(comments_count))

## # A tibble: 902 x 16
##       id URL   party timestamp           type  message link  comments_count
##    <dbl> <chr> <chr> <dttm>              <chr> <chr>   <chr>          <dbl>
##  1   870 http~ alte~ 2019-05-26 15:50:19 video "+++ H~ http~           4829
##  2   752 http~ alte~ 2019-05-23 17:24:43 video "+++ E~ http~           3294
##  3   616 http~ alte~ 2019-05-20 09:49:00 photo "++ Me~ http~           3100
##  4   802 http~ alte~ 2019-05-24 17:01:12 video "+++ S~ http~           2874
##  5    44 http~ alte~ 2019-04-30 19:02:07 video "2. Te~ http~           2862
##  6   335 http~ alte~ 2019-05-10 17:27:58 video "+++ H~ http~           2425
##  7   343 http~ alte~ 2019-05-11 13:12:00 photo "++ Di~ http~           2363
##  8    50 http~ alte~ 2019-04-30 17:18:13 video "+++ H~ http~           2246
##  9   198 http~ alte~ 2019-05-06 09:15:00 photo "++ Tä~ http~           1947
## 10   868 http~ alte~ 2019-05-26 11:19:19 photo "++ Wi~ http~           1744
## # ... with 892 more rows, and 8 more variables: shares_count <dbl>,
## #   reactions_count <dbl>, like_count <dbl>, love_count <dbl>, wow_count <dbl>,
## #   haha_count <dbl>, sad_count <dbl>, angry_count <dbl>
…
df_mutated <- mutate(df_fb_eu,
       comments_centered = comments_count - mean(comments_count, na.rm = TRUE),
       message = tolower(message))

select(df_mutated, comments_centered, message)

## # A tibble: 902 x 2
##    comments_centered message                                                           
##                <dbl> <chr>                                                             
##  1            -159.  "guido #klamt aus #ludwigsburg, listenplatz 5 auf der kandidatenl~
##  2            -142.  "aus unserem europawahlprogramm, kapitel 7: gesundheits- und sozi~
##  3             -89.2 "beim wahlkampf-camp in berlin waren gestern hunderte freiwillige~
##  4            -143.  "unser neuer bundesvorstand \U0001f389\U0001f38a\U0001f388 #chanc~
##  5            -153.  "eine neue studie der universität oxford zeigt, dass eine vegane ~
##  6              79.8 "freiheit ist nicht selbstverständlich. #unsereuropa steht für fr~
##  7              20.8 "katarina barley sagt: eine weitere koalition mit der #evp will i~
##  8            -159.  "unser spitzenkandidat patrick breyer mit einem update zum eu19 w~
##  9            -124.  "der absolut härteste „martin-sonneborn-moment“ kommt für watson.~
## 10              14.8 "#klartext von bayerns ministerpräsident und csu-chef markus söde~
## # ... with 892 more rows
…
Analog wird auch bei mutate() die Gruppierung in den Berechnungen berücksichtigt. Wenden wir die oben durchgeführte Mittelwert-Zentrierung der Kommentaranzahl auf unseren gruppierten Datensatz an, wird durch die mean()-Funktion der Mittelwert innerhalb der Gruppen (hier also der Parteien) berechnet. Im Ergebnis bekommen wir also für jeden Facebook-Post einen Wert, wie dieser von der durchschnittlichen Kommentaranzahl auf dieser Parteienseite abweicht:

mutated_df <- mutate(grouped_df, 
                     comments_group_centered = comments_count - mean(comments_count, na.rm = TRUE))

select(mutated_df, party, comments_group_centered, comments_count)

## # A tibble: 902 x 3
## # Groups:   party [14]
##    party            comments_group_centered comments_count
##    <chr>                              <dbl>          <dbl>
##  1 oedp.de                            -6.58              0
##  2 tierschutzpartei                  -50.4              17
##  3 B90DieGruenen                     -35.5              70
##  4 FDP                               -54                16
##  5 tierschutzpartei                  -61.4               6
##  6 CDU                              -110.              239
##  7 SPD                               -40.4             180
##  8 Piratenpartei                     -11.4               0
##  9 DiePARTEI                         -25.4              35
## 10 CSU                                37.7             174
## # ... with 892 more rows

Wir können auch nach mehreren Variablen gruppieren:

# Wir berechnen erneut die zentralen Facebook-Metriken
# mit summarize(), gruppieren aber zuvor nach Partei UND Post-Typ

grouped_df <- group_by(df_fb_eu, party, type)

summarize(grouped_df, mean_comments = mean(comments_count, na.rm = TRUE),
          mean_shares = mean(shares_count, na.rm = TRUE),
          mean_reactions = mean(reactions_count, na.rm = TRUE))

## # A tibble: 46 x 5
## # Groups:   party [14]
##    party             type   mean_comments mean_shares mean_reactions
##    <chr>             <chr>          <dbl>       <dbl>          <dbl>
##  1 alternativefuerde link           826.       1341.           2953 
##  2 alternativefuerde photo          860.       2466.           5269.
##  3 alternativefuerde video          875.        847.           2340.
##  4 B90DieGruenen     photo          134.        183.            902.
##  5 B90DieGruenen     video           77.9       184.            425.
##  6 CDU               photo          394.        114.            810.
##  7 CDU               video          293.         53.0           400.
##  8 CSU               link            25          11             132.
##  9 CSU               photo          143.         63.8           566.
## 10 CSU               status         416.        112.           1106 
## # ... with 36 more rows
…
rowwise_df <- rowwise(df_fb_eu)

mutated_df <- mutate(rowwise_df, 
                     mean_reactions = mean(c(like_count, love_count, wow_count, haha_count, sad_count, angry_count),
                                           na.rm = TRUE))

select(mutated_df, mean_reactions)

## Source: local data frame [902 x 1]
## Groups: <by row>
## 
## # A tibble: 902 x 1
##    mean_reactions
##             <dbl>
##  1           1.5 
##  2          65.8 
##  3          35.8 
##  4          43.7 
##  5          24.2 
##  6          66.3 
##  7         116.  
##  8           1.17
##  9         102   
## 10          76.3 
## # ... with 892 more rows
…
